\relax 
\@writefile{toc}{\contentsline {section}{\numberline {1}Background}{1}}
\@writefile{toc}{\contentsline {section}{\numberline {2}Problems}{2}}
\@writefile{lof}{\contentsline {figure}{\numberline {1}{\ignorespaces Picture a shows the numerical solution for an initial value that is too small. Picture b show the solution for an initial value that is too large.\relax }}{4}}
\providecommand*\caption@xref[2]{\@setref\relax\@undefined{#1}}
\newlabel{fig:initial values}{{1}{4}}
\@writefile{lof}{\contentsline {subfigure}{\numberline{(a)}{\ignorespaces {$V(-5\tmspace +\thinmuskip {.1667em}\text {mm})= 0.0107\tmspace +\thinmuskip {.1667em}\text {V}$}}}{4}}
\@writefile{lof}{\contentsline {subfigure}{\numberline{(b)}{\ignorespaces {$V(-5\tmspace +\thinmuskip {.1667em}\text {mm})= 0.0108\tmspace +\thinmuskip {.1667em}\text {V}$}}}{4}}
\@writefile{lof}{\contentsline {figure}{\numberline {2}{\ignorespaces Numerical solution with best initial condition that was computed with shooting method.\relax }}{4}}
\newlabel{fig:symmetric}{{2}{4}}
\@writefile{lof}{\contentsline {figure}{\numberline {3}{\ignorespaces Figure shows the analytical and numerical solutions for steady state cable.\relax }}{5}}
\newlabel{fig:comparison}{{3}{5}}
\newlabel{eq:v}{{4}{5}}
\newlabel{eq:matrix}{{7}{6}}
\@writefile{lof}{\contentsline {figure}{\numberline {4}{\ignorespaces The first figure shows the action potential at one time step. The second to figures show how the action potential moves through an individual compartment with respect to time.\relax }}{7}}
\newlabel{fig:ex3}{{4}{7}}
\@writefile{lof}{\contentsline {figure}{\numberline {5}{\ignorespaces Numerical and analytical solutions for the action potential propagation speeds as a function of axon radius $a$.\relax }}{8}}
\newlabel{fig:ex4}{{5}{8}}
\@writefile{lof}{\contentsline {figure}{\numberline {6}{\ignorespaces Initiating action potentials at both ends of the axon.\relax }}{9}}
\newlabel{fig:ex5_axon}{{6}{9}}
\@writefile{lof}{\contentsline {figure}{\numberline {7}{\ignorespaces Two action potentials move towards each other and annihilate when colliding.\relax }}{9}}
\newlabel{fig:ex5}{{7}{9}}
\@writefile{lof}{\contentsline {figure}{\numberline {8}{\ignorespaces Action potential propagation along a myelinated axon.\relax }}{10}}
\newlabel{fig:ex6}{{8}{10}}
